{
  "project_info": {
    "project_number": "944342204268",
    "project_id": "rentyt-f6358",
    "storage_bucket": "rentyt-f6358.appspot.com"
  },
  "client": [
    {
      "client_info": {
        "mobilesdk_app_id": "1:944342204268:android:47a4d429a68e08557a3d49",
        "android_client_info": {
          "package_name": "com.rentytapp"
        }
      },
      "oauth_client": [
        {
          "client_id": "944342204268-0scngehrccbeckqnl187qa6rvmbdts89.apps.googleusercontent.com",
          "client_type": 3
        }
      ],
      "api_key": [
        {
          "current_key": "AIzaSyAcVLfGbgJMOcVrPiZslWbUbiakZmDoXLA"
        }
      ],
      "services": {
        "appinvite_service": {
          "other_platform_oauth_client": [
            {
              "client_id": "944342204268-0scngehrccbeckqnl187qa6rvmbdts89.apps.googleusercontent.com",
              "client_type": 3
            },
            {
              "client_id": "944342204268-k2uipa6gin9k0oacvh8u04hi73dnq44p.apps.googleusercontent.com",
              "client_type": 2,
              "ios_info": {
                "bundle_id": "com.rentytapp"
              }
            }
          ]
        }
      }
    }
  ],
  "configuration_version": "1"
}