[
  {
    "label": "2022",
    "value": 0
  },
  {
    "label": "2021",
    "value": 1
  },
  {
    "label": "2020",
    "value": 2
  },
  {
    "label": "2019",
    "value": 3
  },
  {
    "label": "2018",
    "value": 4
  },
  {
    "label": "2017",
    "value": 5
  },
  {
    "label": "2016",
    "value": 6
  },
  {
    "label": "2015",
    "value": 7
  },
  {
    "label": "2014",
    "value": 8
  },
  {
    "label": "2013",
    "value": 9
  },
  {
    "label": "2012",
    "value": 10
  },
  {
    "label": "2011",
    "value": 11
  },
  {
    "label": "2010",
    "value": 12
  },
  {
    "label": "2009",
    "value": 13
  },
  {
    "label": "2008",
    "value": 14
  },
  {
    "label": "2007",
    "value": 15
  },
  {
    "label": "2006",
    "value": 16
  },
  {
    "label": "2005",
    "value": 17
  },
  {
    "label": "2004",
    "value": 18
  },
  {
    "label": "2003",
    "value": 19
  },
  {
    "label": "2002",
    "value": 20
  },
  {
    "label": "2001",
    "value": 21
  },
  {
    "label": "2000",
    "value": 22
  }
]
